EESchema Schematic File Version 4
LIBS:NXP Car PCB-cache
EELAYER 26 0
EELAYER END
$Descr A4 11693 8268
encoding utf-8
Sheet 1 1
Title "IDE Car Control Board"
Date "2018-11-01"
Rev "1"
Comp "Team Crash 'N Learn"
Comment1 ""
Comment2 ""
Comment3 ""
Comment4 ""
$EndDescr
$Comp
L NXP-Car-PCB-rescue:FRDM-K64F-NXP_Car U1
U 1 1 5BD20F35
P 4000 2200
F 0 "U1" H 3100 178 50  0000 C CNN
F 1 "FRDM-K64F" H 3100 87  50  0000 C CNN
F 2 "MCU_Lib:K64_Corrected" H 3200 100 50  0001 C CNN
F 3 "https://cache.freescale.com/files/32bit/doc/user_guide/FRDMK64FUG.pdf" H 3200 150 50  0001 C BNN
	1    4000 2200
	1    0    0    -1  
$EndComp
$Comp
L NXP-Car-PCB-rescue:TLE5206-2-NXP_Car U2
U 1 1 5BD20F8A
P 8900 4100
F 0 "U2" H 8900 4628 50  0000 C CNN
F 1 "TLE5206-2" H 8900 4537 50  0000 C CNN
F 2 "Package_TO_SOT_THT:TO-220-7_P2.54x3.7mm_StaggerEven_Lead3.8mm_Vertical" H 9000 3150 50  0001 C CNN
F 3 "https://www.infineon.com/dgdl/Infineon-TLE5206_2-DS-v01_01-en.pdf?folderId=db3a30431b3e89eb011bb632994f065b&fileId=db3a30431f848401011fc753a71779a7&ack=t" H 8950 3300 50  0001 C CNN
	1    8900 4100
	1    0    0    -1  
$EndComp
$Comp
L Device:C_Small C1
U 1 1 5BD22214
P 9300 4350
F 0 "C1" H 9392 4396 50  0000 L CNN
F 1 "100 nF" H 9392 4305 50  0000 L CNN
F 2 "Capacitor_THT:C_Disc_D5.0mm_W2.5mm_P5.00mm" H 9338 4200 50  0001 C CNN
F 3 "" H 9300 4350 50  0001 C CNN
	1    9300 4350
	1    0    0    -1  
$EndComp
$Comp
L power:GND #PWR013
U 1 1 5BD222BB
P 8850 4550
F 0 "#PWR013" H 8850 4300 50  0001 C CNN
F 1 "GND" H 8855 4377 50  0000 C CNN
F 2 "" H 8850 4550 50  0001 C CNN
F 3 "" H 8850 4550 50  0001 C CNN
	1    8850 4550
	1    0    0    -1  
$EndComp
Wire Wire Line
	8850 4550 8850 4500
$Comp
L power:+BATT #PWR012
U 1 1 5BD225AF
P 8850 3450
F 0 "#PWR012" H 8850 3300 50  0001 C CNN
F 1 "+BATT" H 8865 3623 50  0000 C CNN
F 2 "" H 8850 3450 50  0001 C CNN
F 3 "" H 8850 3450 50  0001 C CNN
	1    8850 3450
	1    0    0    -1  
$EndComp
Connection ~ 8850 3750
$Comp
L Device:CP_Small C3
U 1 1 5BD22830
P 9450 3600
F 0 "C3" H 9538 3646 50  0000 L CNN
F 1 "100 uF" H 9538 3555 50  0000 L CNN
F 2 "Capacitor_THT:CP_Radial_D8.0mm_P3.50mm" H 9450 3600 50  0001 C CNN
F 3 "" H 9450 3600 50  0001 C CNN
	1    9450 3600
	1    0    0    -1  
$EndComp
Wire Wire Line
	8850 4500 9300 4500
Wire Wire Line
	9300 4500 9300 4450
Connection ~ 8850 4500
Wire Wire Line
	9300 3750 9300 4250
Wire Wire Line
	9300 3750 8850 3750
Wire Wire Line
	8850 3450 9450 3450
Wire Wire Line
	8850 3450 8850 3750
Connection ~ 8850 3450
$Comp
L power:GND #PWR016
U 1 1 5BD22D3C
P 9450 3750
F 0 "#PWR016" H 9450 3500 50  0001 C CNN
F 1 "GND" H 9455 3577 50  0000 C CNN
F 2 "" H 9450 3750 50  0001 C CNN
F 3 "" H 9450 3750 50  0001 C CNN
	1    9450 3750
	1    0    0    -1  
$EndComp
Wire Wire Line
	9450 3700 9450 3750
Wire Wire Line
	9450 3450 9450 3500
$Comp
L power:+5V #PWR010
U 1 1 5BD23195
P 8450 3500
F 0 "#PWR010" H 8450 3350 50  0001 C CNN
F 1 "+5V" H 8465 3673 50  0000 C CNN
F 2 "" H 8450 3500 50  0001 C CNN
F 3 "" H 8450 3500 50  0001 C CNN
	1    8450 3500
	1    0    0    -1  
$EndComp
$Comp
L Device:R R3
U 1 1 5BD23334
P 8450 3700
F 0 "R3" H 8520 3746 50  0000 L CNN
F 1 "2 k" H 8520 3655 50  0000 L CNN
F 2 "Resistor_THT:R_Axial_DIN0207_L6.3mm_D2.5mm_P10.16mm_Horizontal" V 8380 3700 50  0001 C CNN
F 3 "" H 8450 3700 50  0001 C CNN
	1    8450 3700
	1    0    0    -1  
$EndComp
Wire Wire Line
	8550 4100 8450 4100
Wire Wire Line
	8450 4100 8450 3850
Wire Wire Line
	8450 3550 8450 3500
$Comp
L NXP-Car-PCB-rescue:TLE5206-2-NXP_Car U3
U 1 1 5BD3541B
P 8900 5650
F 0 "U3" H 8900 6178 50  0000 C CNN
F 1 "TLE5206-2" H 8900 6087 50  0000 C CNN
F 2 "Package_TO_SOT_THT:TO-220-7_P2.54x3.7mm_StaggerEven_Lead3.8mm_Vertical" H 9000 4700 50  0001 C CNN
F 3 "https://www.infineon.com/dgdl/Infineon-TLE5206_2-DS-v01_01-en.pdf?folderId=db3a30431b3e89eb011bb632994f065b&fileId=db3a30431f848401011fc753a71779a7&ack=t" H 8950 4850 50  0001 C CNN
	1    8900 5650
	1    0    0    -1  
$EndComp
$Comp
L Device:C_Small C2
U 1 1 5BD3542D
P 9300 5900
F 0 "C2" H 9392 5946 50  0000 L CNN
F 1 "100 nF" H 9392 5855 50  0000 L CNN
F 2 "Capacitor_THT:C_Disc_D5.0mm_W2.5mm_P5.00mm" H 9338 5750 50  0001 C CNN
F 3 "" H 9300 5900 50  0001 C CNN
	1    9300 5900
	1    0    0    -1  
$EndComp
$Comp
L power:GND #PWR015
U 1 1 5BD35433
P 8850 6100
F 0 "#PWR015" H 8850 5850 50  0001 C CNN
F 1 "GND" H 8855 5927 50  0000 C CNN
F 2 "" H 8850 6100 50  0001 C CNN
F 3 "" H 8850 6100 50  0001 C CNN
	1    8850 6100
	1    0    0    -1  
$EndComp
Wire Wire Line
	8850 6100 8850 6050
$Comp
L power:+BATT #PWR014
U 1 1 5BD3543A
P 8850 5000
F 0 "#PWR014" H 8850 4850 50  0001 C CNN
F 1 "+BATT" H 8865 5173 50  0000 C CNN
F 2 "" H 8850 5000 50  0001 C CNN
F 3 "" H 8850 5000 50  0001 C CNN
	1    8850 5000
	1    0    0    -1  
$EndComp
Connection ~ 8850 5300
$Comp
L Device:CP_Small C4
U 1 1 5BD35441
P 9450 5150
F 0 "C4" H 9538 5196 50  0000 L CNN
F 1 "100 uF" H 9538 5105 50  0000 L CNN
F 2 "Capacitor_THT:CP_Radial_D8.0mm_P3.50mm" H 9450 5150 50  0001 C CNN
F 3 "" H 9450 5150 50  0001 C CNN
	1    9450 5150
	1    0    0    -1  
$EndComp
Wire Wire Line
	8850 6050 9300 6050
Wire Wire Line
	9300 6050 9300 6000
Connection ~ 8850 6050
Wire Wire Line
	9300 5300 9300 5800
Wire Wire Line
	9300 5300 8850 5300
Wire Wire Line
	8850 5000 9450 5000
Wire Wire Line
	8850 5000 8850 5300
Connection ~ 8850 5000
$Comp
L power:GND #PWR017
U 1 1 5BD3544F
P 9450 5300
F 0 "#PWR017" H 9450 5050 50  0001 C CNN
F 1 "GND" H 9455 5127 50  0000 C CNN
F 2 "" H 9450 5300 50  0001 C CNN
F 3 "" H 9450 5300 50  0001 C CNN
	1    9450 5300
	1    0    0    -1  
$EndComp
Wire Wire Line
	9450 5250 9450 5300
Wire Wire Line
	9450 5000 9450 5050
$Comp
L power:+5V #PWR011
U 1 1 5BD35457
P 8450 5050
F 0 "#PWR011" H 8450 4900 50  0001 C CNN
F 1 "+5V" H 8465 5223 50  0000 C CNN
F 2 "" H 8450 5050 50  0001 C CNN
F 3 "" H 8450 5050 50  0001 C CNN
	1    8450 5050
	1    0    0    -1  
$EndComp
$Comp
L Device:R R4
U 1 1 5BD3545D
P 8450 5250
F 0 "R4" H 8520 5296 50  0000 L CNN
F 1 "2 k" H 8520 5205 50  0000 L CNN
F 2 "Resistor_THT:R_Axial_DIN0207_L6.3mm_D2.5mm_P10.16mm_Horizontal" V 8380 5250 50  0001 C CNN
F 3 "" H 8450 5250 50  0001 C CNN
	1    8450 5250
	1    0    0    -1  
$EndComp
Wire Wire Line
	8550 5650 8450 5650
Wire Wire Line
	8450 5650 8450 5400
Wire Wire Line
	8450 5100 8450 5050
Text Label 4350 3450 0    50   ~ 0
Motor_A_In1
Text Label 4350 2550 0    50   ~ 0
Motor_A_In2
Wire Wire Line
	4350 2550 4800 2550
Text Label 4350 2350 0    50   ~ 0
Motor_B_In2
Wire Wire Line
	4350 2350 4800 2350
Text Label 3650 2100 1    50   ~ 0
Motor_B_In1
Wire Wire Line
	3650 2100 3650 1650
Text Label 8550 5750 2    50   ~ 0
Motor_A_In1
Wire Wire Line
	8100 5750 8550 5750
Text Label 8550 5550 2    50   ~ 0
Motor_A_In2
Wire Wire Line
	8550 5550 8100 5550
Text Label 8550 4000 2    50   ~ 0
Motor_B_In2
Text Label 8550 4200 2    50   ~ 0
Motor_B_In1
Wire Wire Line
	8550 4000 8100 4000
Wire Wire Line
	8550 4200 8100 4200
Text Notes 9900 2800 2    100  ~ 0
Motor Control Subsystem
Wire Wire Line
	1500 2850 1850 2850
Wire Wire Line
	1850 2650 1800 2650
Wire Wire Line
	1800 2650 1800 2600
Wire Wire Line
	1800 2600 1700 2600
Wire Wire Line
	1850 2750 1800 2750
Wire Wire Line
	1800 2750 1800 2650
Connection ~ 1800 2650
$Comp
L power:GND #PWR06
U 1 1 5BD435CF
P 2650 1800
F 0 "#PWR06" H 2650 1550 50  0001 C CNN
F 1 "GND" H 2655 1627 50  0000 C CNN
F 2 "" H 2650 1800 50  0001 C CNN
F 3 "" H 2650 1800 50  0001 C CNN
	1    2650 1800
	1    0    0    -1  
$EndComp
Wire Wire Line
	2750 2100 2750 1800
Wire Wire Line
	2750 1800 2650 1800
$Comp
L power:GND #PWR09
U 1 1 5BD45280
P 3850 1800
F 0 "#PWR09" H 3850 1550 50  0001 C CNN
F 1 "GND" H 3855 1627 50  0000 C CNN
F 2 "" H 3850 1800 50  0001 C CNN
F 3 "" H 3850 1800 50  0001 C CNN
	1    3850 1800
	1    0    0    -1  
$EndComp
Wire Wire Line
	3750 2100 3750 1800
Wire Wire Line
	3750 1800 3850 1800
$Comp
L Connector_Generic:Conn_01x06 J2
U 1 1 5BD8B3A4
P 10250 4900
F 0 "J2" H 10329 4892 50  0000 L CNN
F 1 "Motor_A" H 10329 4801 50  0000 L CNN
F 2 "Connector_PinHeader_2.54mm:PinHeader_1x06_P2.54mm_Vertical" H 10250 4900 50  0001 C CNN
F 3 "" H 10250 4900 50  0001 C CNN
	1    10250 4900
	1    0    0    -1  
$EndComp
$Comp
L power:GND #PWR021
U 1 1 5BD8D6AE
P 10000 5250
F 0 "#PWR021" H 10000 5000 50  0001 C CNN
F 1 "GND" H 10005 5077 50  0000 C CNN
F 2 "" H 10000 5250 50  0001 C CNN
F 3 "" H 10000 5250 50  0001 C CNN
	1    10000 5250
	1    0    0    -1  
$EndComp
Wire Wire Line
	10050 4700 10000 4700
Wire Wire Line
	10050 4800 9950 4800
Wire Wire Line
	9950 4800 9950 4650
Text Label 10050 4900 2    50   ~ 0
Motor_A_encoder1
Text Label 10050 5000 2    50   ~ 0
Motor_A_encoder2
$Comp
L Connector_Generic:Conn_01x06 J1
U 1 1 5BD960E6
P 10250 3350
F 0 "J1" H 10330 3342 50  0000 L CNN
F 1 "Motor_B" H 10330 3251 50  0000 L CNN
F 2 "Connector_PinHeader_2.54mm:PinHeader_1x06_P2.54mm_Vertical" H 10250 3350 50  0001 C CNN
F 3 "" H 10250 3350 50  0001 C CNN
	1    10250 3350
	1    0    0    -1  
$EndComp
$Comp
L power:GND #PWR020
U 1 1 5BD960EC
P 10000 3700
F 0 "#PWR020" H 10000 3450 50  0001 C CNN
F 1 "GND" H 10005 3527 50  0000 C CNN
F 2 "" H 10000 3700 50  0001 C CNN
F 3 "" H 10000 3700 50  0001 C CNN
	1    10000 3700
	1    0    0    -1  
$EndComp
Wire Wire Line
	10050 3150 10000 3150
Wire Wire Line
	10050 3250 9950 3250
Wire Wire Line
	9950 3250 9950 3100
Text Label 10050 3350 2    50   ~ 0
Motor_B_encoder1
Text Label 10050 3450 2    50   ~ 0
Motor_B_encoder2
Wire Notes Line
	8000 2850 8000 6350
$Comp
L Device:Battery BT1
U 1 1 5BDB66ED
P 7000 3800
F 0 "BT1" H 7108 3846 50  0000 L CNN
F 1 "Battery" H 7108 3755 50  0000 L CNN
F 2 "TerminalBlock_Phoenix:TerminalBlock_Phoenix_MKDS-1,5-2_1x02_P5.00mm_Horizontal" V 7000 3860 50  0001 C CNN
F 3 "" V 7000 3860 50  0001 C CNN
	1    7000 3800
	1    0    0    -1  
$EndComp
$Comp
L power:+BATT #PWR01
U 1 1 5BDB7A5D
P 7000 3500
F 0 "#PWR01" H 7000 3350 50  0001 C CNN
F 1 "+BATT" H 7015 3673 50  0000 C CNN
F 2 "" H 7000 3500 50  0001 C CNN
F 3 "" H 7000 3500 50  0001 C CNN
	1    7000 3500
	1    0    0    -1  
$EndComp
$Comp
L power:GND #PWR02
U 1 1 5BDB7D0F
P 7000 4050
F 0 "#PWR02" H 7000 3800 50  0001 C CNN
F 1 "GND" H 7005 3877 50  0000 C CNN
F 2 "" H 7000 4050 50  0001 C CNN
F 3 "" H 7000 4050 50  0001 C CNN
	1    7000 4050
	1    0    0    -1  
$EndComp
Wire Wire Line
	7000 3500 7000 3550
Wire Wire Line
	7000 3550 7000 3600
Wire Wire Line
	7000 4000 7000 4050
Wire Notes Line
	7550 2850 7550 4300
Text Notes 6750 2850 0    100  ~ 0
Power Switch
Text Label 5850 2100 0    50   ~ 0
I2C_SCL
Text Label 5850 2200 0    50   ~ 0
I2C_SDA
Text Notes 5750 1900 0    100  ~ 0
I2C Bus
Text Label 2350 2100 1    50   ~ 10
I2C_SCL
Text Label 2450 2100 1    50   ~ 10
I2C_SDA
Text Label 4350 3250 0    50   ~ 10
Motor_A_encoder1
Text Label 4350 3050 0    50   ~ 10
Motor_A_encoder2
Text Label 1850 4050 2    50   ~ 10
Motor_B_encoder1
$Comp
L Motor:Motor_Servo_Futaba_J M1
U 1 1 5BDDF90A
P 8850 1900
F 0 "M1" H 9182 1965 50  0000 L CNN
F 1 "Motor_Servo_Futaba_J" H 9182 1874 50  0000 L CNN
F 2 "Connector_PinHeader_2.54mm:PinHeader_1x03_P2.54mm_Vertical" H 8850 1710 50  0001 C CNN
F 3 "http://forums.parallax.com/uploads/attachments/46831/74481.png" H 8850 1710 50  0001 C CNN
	1    8850 1900
	1    0    0    -1  
$EndComp
Wire Wire Line
	8500 1750 8500 1900
Wire Wire Line
	8500 1900 8550 1900
$Comp
L power:GND #PWR0101
U 1 1 5BDE16D2
P 8500 2050
F 0 "#PWR0101" H 8500 1800 50  0001 C CNN
F 1 "GND" H 8505 1877 50  0000 C CNN
F 2 "" H 8500 2050 50  0001 C CNN
F 3 "" H 8500 2050 50  0001 C CNN
	1    8500 2050
	1    0    0    -1  
$EndComp
Wire Wire Line
	8550 2000 8500 2000
Wire Wire Line
	8500 2000 8500 2050
Text Label 8050 1800 0    50   ~ 0
Servo_PWM
Wire Wire Line
	8050 1800 8550 1800
Text Label 4350 3850 0    50   ~ 10
Servo_PWM
Wire Notes Line
	8000 1450 8000 2300
Wire Notes Line
	8000 2300 10100 2300
Wire Notes Line
	10100 2300 10100 1450
Wire Notes Line
	10100 1450 8000 1450
Text Notes 8000 1450 0    100  ~ 0
Steering Servo\n
$Comp
L power:+BATT #PWR0102
U 1 1 5BE20690
P 8500 1750
F 0 "#PWR0102" H 8500 1600 50  0001 C CNN
F 1 "+BATT" H 8515 1923 50  0000 C CNN
F 2 "" H 8500 1750 50  0001 C CNN
F 3 "" H 8500 1750 50  0001 C CNN
	1    8500 1750
	1    0    0    -1  
$EndComp
$Comp
L Connector_Generic:Conn_01x02 J3
U 1 1 5BE20F3B
P 6900 2100
F 0 "J3" H 6979 2092 50  0000 L CNN
F 1 "I2C Connector" H 6979 2001 50  0000 L CNN
F 2 "Connector_PinHeader_2.54mm:PinHeader_1x02_P2.54mm_Vertical" H 6900 2100 50  0001 C CNN
F 3 "~" H 6900 2100 50  0001 C CNN
	1    6900 2100
	1    0    0    -1  
$EndComp
Wire Notes Line
	5750 2300 7550 2300
Wire Notes Line
	5750 1950 7550 1950
Wire Wire Line
	10000 3150 10000 3700
Wire Wire Line
	9250 4000 9800 4000
Wire Wire Line
	9250 4200 9900 4200
Wire Wire Line
	10000 4700 10000 5250
Wire Wire Line
	9800 5100 10050 5100
Wire Wire Line
	9250 5550 9800 5550
Wire Wire Line
	9800 5100 9800 5550
Wire Wire Line
	9900 5750 9900 5200
Wire Wire Line
	9900 5200 10050 5200
Wire Wire Line
	9250 5750 9900 5750
Wire Notes Line
	8000 6350 10700 6350
Wire Notes Line
	10700 6350 10700 2850
Wire Notes Line
	10700 2850 8000 2850
Text Label 1850 3850 2    50   ~ 10
Motor_B_encoder2
$Comp
L Connector_Generic:Conn_01x05 J4
U 1 1 5BEA0986
P 6850 5650
F 0 "J4" H 6930 5692 50  0000 L CNN
F 1 "Linescan_Camera" H 6930 5601 50  0000 L CNN
F 2 "Connector_PinHeader_2.54mm:PinHeader_1x05_P2.54mm_Vertical" H 6850 5650 50  0001 C CNN
F 3 "~" H 6850 5650 50  0001 C CNN
	1    6850 5650
	1    0    0    -1  
$EndComp
Text Label 6650 5650 2    50   ~ 0
Camera_CLK
Text Label 6650 5750 2    50   ~ 0
Camera_SI
Text Label 6650 5850 2    50   ~ 0
Camera_AO
$Comp
L power:GND #PWR0103
U 1 1 5BEA177B
P 6600 5950
F 0 "#PWR0103" H 6600 5700 50  0001 C CNN
F 1 "GND" H 6605 5777 50  0000 C CNN
F 2 "" H 6600 5950 50  0001 C CNN
F 3 "" H 6600 5950 50  0001 C CNN
	1    6600 5950
	1    0    0    -1  
$EndComp
Wire Notes Line
	6150 5100 6150 6200
Wire Notes Line
	6150 6200 7600 6200
Wire Notes Line
	7600 6200 7600 5100
Wire Notes Line
	7600 5100 6150 5100
Text Notes 6150 5100 0    100  ~ 0
Camera
$Comp
L Regulator_Linear:LM1084-3.3 U4
U 1 1 5C005EB8
P 5050 5600
F 0 "U4" H 5050 5842 50  0000 C CNN
F 1 "LM1084-3.3" H 5050 5751 50  0000 C CNN
F 2 "digikey-footprints:TO-220-3" H 5050 5850 50  0001 C CIN
F 3 "http://www.ti.com/lit/ds/symlink/lm1084.pdf" H 5050 5600 50  0001 C CNN
	1    5050 5600
	1    0    0    -1  
$EndComp
$Comp
L Regulator_Linear:LM1084-5.0 U5
U 1 1 5C005FB6
P 5050 6750
F 0 "U5" H 5050 6992 50  0000 C CNN
F 1 "LM1084-5.0" H 5050 6901 50  0000 C CNN
F 2 "digikey-footprints:TO-220-3" H 5050 7000 50  0001 C CIN
F 3 "http://www.ti.com/lit/ds/symlink/lm1084.pdf" H 5050 6750 50  0001 C CNN
	1    5050 6750
	1    0    0    -1  
$EndComp
$Comp
L power:+BATT #PWR0106
U 1 1 5C0068DB
P 4600 5450
F 0 "#PWR0106" H 4600 5300 50  0001 C CNN
F 1 "+BATT" H 4615 5623 50  0000 C CNN
F 2 "" H 4600 5450 50  0001 C CNN
F 3 "" H 4600 5450 50  0001 C CNN
	1    4600 5450
	1    0    0    -1  
$EndComp
Wire Wire Line
	4600 5450 4600 5600
Wire Wire Line
	4600 5600 4700 5600
$Comp
L Device:CP1_Small C5
U 1 1 5C00B675
P 4700 5900
F 0 "C5" H 4791 5946 50  0000 L CNN
F 1 "10u" H 4791 5855 50  0000 L CNN
F 2 "Capacitor_THT:CP_Radial_Tantal_D5.0mm_P2.50mm" H 4700 5900 50  0001 C CNN
F 3 "~" H 4700 5900 50  0001 C CNN
	1    4700 5900
	1    0    0    -1  
$EndComp
Connection ~ 4700 5600
Wire Wire Line
	4700 5600 4750 5600
$Comp
L Device:CP1_Small C6
U 1 1 5C00B6E4
P 4700 7050
F 0 "C6" H 4791 7096 50  0000 L CNN
F 1 "10u" H 4791 7005 50  0000 L CNN
F 2 "Capacitor_THT:CP_Radial_Tantal_D5.0mm_P2.50mm" H 4700 7050 50  0001 C CNN
F 3 "~" H 4700 7050 50  0001 C CNN
	1    4700 7050
	1    0    0    -1  
$EndComp
$Comp
L Device:CP1_Small C7
U 1 1 5C00B730
P 5400 5700
F 0 "C7" H 5491 5746 50  0000 L CNN
F 1 "10u" H 5491 5655 50  0000 L CNN
F 2 "Capacitor_THT:CP_Radial_Tantal_D5.0mm_P2.50mm" H 5400 5700 50  0001 C CNN
F 3 "~" H 5400 5700 50  0001 C CNN
	1    5400 5700
	1    0    0    -1  
$EndComp
$Comp
L Device:CP1_Small C8
U 1 1 5C00B780
P 5400 6850
F 0 "C8" H 5491 6896 50  0000 L CNN
F 1 "10u" H 5491 6805 50  0000 L CNN
F 2 "Capacitor_THT:CP_Radial_Tantal_D5.0mm_P2.50mm" H 5400 6850 50  0001 C CNN
F 3 "~" H 5400 6850 50  0001 C CNN
	1    5400 6850
	1    0    0    -1  
$EndComp
Wire Wire Line
	5350 5600 5400 5600
Wire Wire Line
	5350 6750 5400 6750
Wire Wire Line
	4700 5600 4700 5800
Wire Wire Line
	4600 6750 4700 6750
Wire Wire Line
	4700 6750 4700 6950
Connection ~ 4700 6750
Wire Wire Line
	4700 6750 4750 6750
$Comp
L power:+3.3V #PWR0107
U 1 1 5C0165BE
P 5400 5600
F 0 "#PWR0107" H 5400 5450 50  0001 C CNN
F 1 "+3.3V" H 5415 5773 50  0000 C CNN
F 2 "" H 5400 5600 50  0001 C CNN
F 3 "" H 5400 5600 50  0001 C CNN
	1    5400 5600
	1    0    0    -1  
$EndComp
Connection ~ 5400 5600
$Comp
L power:+5V #PWR0108
U 1 1 5C016617
P 5400 6750
F 0 "#PWR0108" H 5400 6600 50  0001 C CNN
F 1 "+5V" H 5415 6923 50  0000 C CNN
F 2 "" H 5400 6750 50  0001 C CNN
F 3 "" H 5400 6750 50  0001 C CNN
	1    5400 6750
	1    0    0    -1  
$EndComp
Connection ~ 5400 6750
$Comp
L power:GND #PWR0109
U 1 1 5C0166AC
P 4700 6050
F 0 "#PWR0109" H 4700 5800 50  0001 C CNN
F 1 "GND" H 4705 5877 50  0000 C CNN
F 2 "" H 4700 6050 50  0001 C CNN
F 3 "" H 4700 6050 50  0001 C CNN
	1    4700 6050
	1    0    0    -1  
$EndComp
Wire Wire Line
	4700 6000 4700 6050
$Comp
L power:+BATT #PWR0110
U 1 1 5C01C33A
P 4600 6600
F 0 "#PWR0110" H 4600 6450 50  0001 C CNN
F 1 "+BATT" H 4615 6773 50  0000 C CNN
F 2 "" H 4600 6600 50  0001 C CNN
F 3 "" H 4600 6600 50  0001 C CNN
	1    4600 6600
	1    0    0    -1  
$EndComp
Wire Wire Line
	4600 6600 4600 6750
$Comp
L power:GND #PWR0111
U 1 1 5C01F14E
P 4700 7200
F 0 "#PWR0111" H 4700 6950 50  0001 C CNN
F 1 "GND" H 4705 7027 50  0000 C CNN
F 2 "" H 4700 7200 50  0001 C CNN
F 3 "" H 4700 7200 50  0001 C CNN
	1    4700 7200
	1    0    0    -1  
$EndComp
Wire Wire Line
	4700 7200 4700 7150
Wire Wire Line
	4700 7150 5050 7150
Wire Wire Line
	5050 7150 5050 7050
Connection ~ 4700 7150
Wire Wire Line
	5050 7150 5400 7150
Wire Wire Line
	5400 7150 5400 6950
Connection ~ 5050 7150
Wire Wire Line
	4700 6000 5050 6000
Wire Wire Line
	5050 6000 5050 5900
Connection ~ 4700 6000
Wire Wire Line
	5050 6000 5400 6000
Wire Wire Line
	5400 6000 5400 5800
Connection ~ 5050 6000
$Comp
L power:+5V #PWR0112
U 1 1 5C039925
P 1500 2850
F 0 "#PWR0112" H 1500 2700 50  0001 C CNN
F 1 "+5V" H 1515 3023 50  0000 C CNN
F 2 "" H 1500 2850 50  0001 C CNN
F 3 "" H 1500 2850 50  0001 C CNN
	1    1500 2850
	1    0    0    -1  
$EndComp
Wire Notes Line
	4450 5200 4450 7450
Wire Notes Line
	4450 7450 5650 7450
Wire Notes Line
	5650 7450 5650 5200
Wire Notes Line
	5650 5200 4450 5200
Text Notes 4450 5200 0    100  ~ 0
Voltage Regulation
$Comp
L Device:CP1_Small C9
U 1 1 5C074E6D
P 6800 3800
F 0 "C9" H 6891 3846 50  0000 L CNN
F 1 "300u" H 6891 3755 50  0000 L CNN
F 2 "Capacitor_THT:CP_Radial_D10.0mm_P5.00mm" H 6800 3800 50  0001 C CNN
F 3 "~" H 6800 3800 50  0001 C CNN
	1    6800 3800
	1    0    0    -1  
$EndComp
Wire Wire Line
	7000 3550 6800 3550
Wire Wire Line
	6800 3550 6800 3700
Wire Notes Line
	6550 2850 6550 4300
Wire Notes Line
	6550 2850 7550 2850
Wire Notes Line
	6550 4300 7550 4300
$Comp
L power:GND #PWR0113
U 1 1 5C07FDC7
P 6800 3950
F 0 "#PWR0113" H 6800 3700 50  0001 C CNN
F 1 "GND" H 6805 3777 50  0000 C CNN
F 2 "" H 6800 3950 50  0001 C CNN
F 3 "" H 6800 3950 50  0001 C CNN
	1    6800 3950
	1    0    0    -1  
$EndComp
$Comp
L Device:LED D2
U 1 1 5C257009
P 5700 3700
F 0 "D2" V 5738 3583 50  0000 R CNN
F 1 "LED" V 5647 3583 50  0000 R CNN
F 2 "LED_THT:LED_D3.0mm" H 5700 3700 50  0001 C CNN
F 3 "~" H 5700 3700 50  0001 C CNN
	1    5700 3700
	0    -1   -1   0   
$EndComp
$Comp
L Device:R R2
U 1 1 5C257311
P 5700 3350
F 0 "R2" H 5770 3396 50  0000 L CNN
F 1 "150" H 5770 3305 50  0000 L CNN
F 2 "Resistor_THT:R_Axial_DIN0207_L6.3mm_D2.5mm_P10.16mm_Horizontal" V 5630 3350 50  0001 C CNN
F 3 "~" H 5700 3350 50  0001 C CNN
	1    5700 3350
	1    0    0    -1  
$EndComp
Wire Wire Line
	5700 3500 5700 3550
$Comp
L power:+5V #PWR0118
U 1 1 5C25B5B0
P 5700 3150
F 0 "#PWR0118" H 5700 3000 50  0001 C CNN
F 1 "+5V" H 5715 3323 50  0000 C CNN
F 2 "" H 5700 3150 50  0001 C CNN
F 3 "" H 5700 3150 50  0001 C CNN
	1    5700 3150
	1    0    0    -1  
$EndComp
Wire Wire Line
	5700 3150 5700 3200
$Comp
L power:GND #PWR0119
U 1 1 5C25F822
P 5700 3900
F 0 "#PWR0119" H 5700 3650 50  0001 C CNN
F 1 "GND" H 5705 3727 50  0000 C CNN
F 2 "" H 5700 3900 50  0001 C CNN
F 3 "" H 5700 3900 50  0001 C CNN
	1    5700 3900
	1    0    0    -1  
$EndComp
Wire Wire Line
	5700 3850 5700 3900
$Comp
L Device:LED D1
U 1 1 5C2683B5
P 5350 3700
F 0 "D1" V 5388 3583 50  0000 R CNN
F 1 "LED" V 5297 3583 50  0000 R CNN
F 2 "LED_THT:LED_D3.0mm" H 5350 3700 50  0001 C CNN
F 3 "~" H 5350 3700 50  0001 C CNN
	1    5350 3700
	0    -1   -1   0   
$EndComp
$Comp
L Device:R R1
U 1 1 5C2683BC
P 5350 3350
F 0 "R1" H 5420 3396 50  0000 L CNN
F 1 "150" H 5420 3305 50  0000 L CNN
F 2 "Resistor_THT:R_Axial_DIN0207_L6.3mm_D2.5mm_P10.16mm_Horizontal" V 5280 3350 50  0001 C CNN
F 3 "~" H 5350 3350 50  0001 C CNN
	1    5350 3350
	1    0    0    -1  
$EndComp
Wire Wire Line
	5350 3500 5350 3550
Wire Wire Line
	5350 3150 5350 3200
$Comp
L power:GND #PWR0120
U 1 1 5C2683CB
P 5350 3900
F 0 "#PWR0120" H 5350 3650 50  0001 C CNN
F 1 "GND" H 5355 3727 50  0000 C CNN
F 2 "" H 5350 3900 50  0001 C CNN
F 3 "" H 5350 3900 50  0001 C CNN
	1    5350 3900
	1    0    0    -1  
$EndComp
Wire Wire Line
	5350 3850 5350 3900
$Comp
L power:+3.3V #PWR0121
U 1 1 5C271363
P 5350 3150
F 0 "#PWR0121" H 5350 3000 50  0001 C CNN
F 1 "+3.3V" H 5365 3323 50  0000 C CNN
F 2 "" H 5350 3150 50  0001 C CNN
F 3 "" H 5350 3150 50  0001 C CNN
	1    5350 3150
	1    0    0    -1  
$EndComp
Wire Wire Line
	5850 2200 6700 2200
Wire Wire Line
	5850 2100 6700 2100
Wire Notes Line
	5750 1950 5750 2300
Wire Notes Line
	7550 1950 7550 2300
Wire Notes Line
	5200 4150 6000 4150
Wire Notes Line
	6000 4150 6000 2900
Wire Notes Line
	6000 2900 5200 2900
Wire Notes Line
	5200 2900 5200 4150
Text Notes 5200 2900 0    50   ~ 0
Power Indicators
Wire Wire Line
	9800 4000 9800 3650
Wire Wire Line
	9800 3650 10050 3650
Wire Wire Line
	9900 4200 9900 3550
Wire Wire Line
	9900 3550 10050 3550
$Comp
L power:+5V #PWR0122
U 1 1 5C29D721
P 9950 3100
F 0 "#PWR0122" H 9950 2950 50  0001 C CNN
F 1 "+5V" H 9965 3273 50  0000 C CNN
F 2 "" H 9950 3100 50  0001 C CNN
F 3 "" H 9950 3100 50  0001 C CNN
	1    9950 3100
	1    0    0    -1  
$EndComp
$Comp
L power:+5V #PWR0123
U 1 1 5C29D7C5
P 9950 4650
F 0 "#PWR0123" H 9950 4500 50  0001 C CNN
F 1 "+5V" H 9965 4823 50  0000 C CNN
F 2 "" H 9950 4650 50  0001 C CNN
F 3 "" H 9950 4650 50  0001 C CNN
	1    9950 4650
	1    0    0    -1  
$EndComp
Text Label 2950 2100 1    50   ~ 0
Camera_CLK
Text Label 3150 2100 1    50   ~ 0
Camera_SI
Text Label 3550 2100 1    50   ~ 0
Camera_AO
Connection ~ 7000 3550
Wire Wire Line
	6800 3950 6800 3900
$Comp
L power:GND #PWR05
U 1 1 5BD41DB8
P 1700 2600
F 0 "#PWR05" H 1700 2350 50  0001 C CNN
F 1 "GND" H 1705 2427 50  0000 C CNN
F 2 "" H 1700 2600 50  0001 C CNN
F 3 "" H 1700 2600 50  0001 C CNN
	1    1700 2600
	1    0    0    -1  
$EndComp
$Comp
L Connector_Generic:Conn_01x02 J5
U 1 1 5C319507
P 3400 6150
F 0 "J5" H 3479 6142 50  0000 L CNN
F 1 "5v Connector" H 3479 6051 50  0000 L CNN
F 2 "Connector_PinSocket_2.54mm:PinSocket_2x02_P2.54mm_Vertical" H 3400 6150 50  0001 C CNN
F 3 "~" H 3400 6150 50  0001 C CNN
	1    3400 6150
	0    1    1    0   
$EndComp
$Comp
L Connector_Generic:Conn_01x02 J6
U 1 1 5C31CC07
P 3750 6150
F 0 "J6" H 3829 6142 50  0000 L CNN
F 1 "3.3v Connector" H 3829 6051 50  0000 L CNN
F 2 "Connector_PinSocket_2.54mm:PinSocket_2x02_P2.54mm_Vertical" H 3750 6150 50  0001 C CNN
F 3 "~" H 3750 6150 50  0001 C CNN
	1    3750 6150
	0    1    1    0   
$EndComp
$Comp
L power:+5V #PWR0105
U 1 1 5C31CD41
P 3400 5800
F 0 "#PWR0105" H 3400 5650 50  0001 C CNN
F 1 "+5V" H 3415 5973 50  0000 C CNN
F 2 "" H 3400 5800 50  0001 C CNN
F 3 "" H 3400 5800 50  0001 C CNN
	1    3400 5800
	1    0    0    -1  
$EndComp
$Comp
L power:+3.3V #PWR0114
U 1 1 5C31CD84
P 3750 5800
F 0 "#PWR0114" H 3750 5650 50  0001 C CNN
F 1 "+3.3V" H 3765 5973 50  0000 C CNN
F 2 "" H 3750 5800 50  0001 C CNN
F 3 "" H 3750 5800 50  0001 C CNN
	1    3750 5800
	1    0    0    -1  
$EndComp
$Comp
L power:GND #PWR0115
U 1 1 5C31CDC7
P 3650 5900
F 0 "#PWR0115" H 3650 5650 50  0001 C CNN
F 1 "GND" H 3655 5727 50  0000 C CNN
F 2 "" H 3650 5900 50  0001 C CNN
F 3 "" H 3650 5900 50  0001 C CNN
	1    3650 5900
	-1   0    0    1   
$EndComp
$Comp
L power:GND #PWR0116
U 1 1 5C32A17A
P 3300 5900
F 0 "#PWR0116" H 3300 5650 50  0001 C CNN
F 1 "GND" H 3305 5727 50  0000 C CNN
F 2 "" H 3300 5900 50  0001 C CNN
F 3 "" H 3300 5900 50  0001 C CNN
	1    3300 5900
	-1   0    0    1   
$EndComp
Wire Wire Line
	3750 5800 3750 5950
Wire Wire Line
	3650 5900 3650 5950
Wire Wire Line
	3300 5900 3300 5950
Wire Wire Line
	3400 5800 3400 5950
$Comp
L Connector:Conn_01x06_Female J7
U 1 1 5C3FECBD
P 1500 6350
F 0 "J7" H 1394 5825 50  0000 C CNN
F 1 "Bluetooth Module Connector" H 1394 5916 50  0000 C CNN
F 2 "Connector_PinSocket_2.54mm:PinSocket_1x06_P2.54mm_Vertical" H 1500 6350 50  0001 C CNN
F 3 "~" H 1500 6350 50  0001 C CNN
	1    1500 6350
	-1   0    0    1   
$EndComp
Wire Notes Line
	3200 5550 3900 5550
Wire Notes Line
	3900 5550 3900 6850
Wire Notes Line
	3900 6850 3200 6850
Wire Notes Line
	3200 6850 3200 5550
Text Notes 3900 5550 2    50   ~ 0
Regulated Supplies
Text Label 1700 6550 0    50   ~ 0
BluetoothEN
Text Label 1700 6250 0    50   ~ 0
BluetoothTX
Text Label 1700 6150 0    50   ~ 0
BluetoothRX
Text Label 1700 6050 0    50   ~ 0
BluetoothState
$Comp
L power:+5V #PWR0117
U 1 1 5C4066C0
P 1750 6450
F 0 "#PWR0117" H 1750 6300 50  0001 C CNN
F 1 "+5V" V 1765 6578 50  0000 L CNN
F 2 "" H 1750 6450 50  0001 C CNN
F 3 "" H 1750 6450 50  0001 C CNN
	1    1750 6450
	0    1    1    0   
$EndComp
$Comp
L power:GND #PWR0124
U 1 1 5C406740
P 1750 6350
F 0 "#PWR0124" H 1750 6100 50  0001 C CNN
F 1 "GND" V 1755 6222 50  0000 R CNN
F 2 "" H 1750 6350 50  0001 C CNN
F 3 "" H 1750 6350 50  0001 C CNN
	1    1750 6350
	0    -1   -1   0   
$EndComp
Wire Wire Line
	1700 6350 1750 6350
Wire Wire Line
	1700 6450 1750 6450
Text Label 1850 3650 2    50   ~ 0
BluetoothRX
Text Label 1850 3450 2    50   ~ 0
BluetoothTX
Text Label 1850 3750 2    50   ~ 0
BluetoothState
Text Label 1850 3250 2    50   ~ 0
BluetoothEN
Wire Notes Line
	1050 5700 2300 5700
Wire Notes Line
	2300 5700 2300 6650
Wire Notes Line
	2300 6650 1050 6650
Wire Notes Line
	1050 6650 1050 5700
Wire Wire Line
	6650 5550 6550 5550
Wire Wire Line
	6550 5400 6550 5550
Wire Wire Line
	6650 5450 6600 5450
Wire Wire Line
	6600 5450 6600 5950
$Comp
L power:+3.3V #PWR?
U 1 1 5C764375
P 6550 5400
F 0 "#PWR?" H 6550 5250 50  0001 C CNN
F 1 "+3.3V" H 6565 5573 50  0000 C CNN
F 2 "" H 6550 5400 50  0001 C CNN
F 3 "" H 6550 5400 50  0001 C CNN
	1    6550 5400
	1    0    0    -1  
$EndComp
$EndSCHEMATC
